%YAML 1.1
%TAG !u! tag:unity3d.com,2011:
--- !u!114 &11400000
MonoBehaviour:
  m_ObjectHideFlags: 0
  m_CorrespondingSourceObject: {fileID: 0}
  m_PrefabInstance: {fileID: 0}
  m_PrefabAsset: {fileID: 0}
  m_GameObject: {fileID: 0}
  m_Enabled: 1
  m_EditorHideFlags: 0
  m_Script: {fileID: 11500000, guid: 1aa348d8437e6ff4dacc7f607d0c154e, type: 3}
  m_Name: Level 4
  m_EditorClassIdentifier: 
  IsBoss: 0
  LevelNumber: 4
  _breakLevelSprites:
  - Color: {fileID: 21300000, guid: f75935826c3506a4b905fde2f3ede833, type: 3}
    Mask: {fileID: 21300000, guid: 952019989e6a8ea4ab7285c2530b2d7d, type: 3}
  - Color: {fileID: 21300000, guid: c933df9b216685e4f9ca88dd7fe59657, type: 3}
    Mask: {fileID: 21300000, guid: 25b9dbe3797ecdf47b19ece305fd0221, type: 3}
  - Color: {fileID: 21300000, guid: dcdfbb3bf4586d74491823e81024f2e7, type: 3}
    Mask: {fileID: 21300000, guid: 11170be87a4d8184199f36752b488dfd, type: 3}
  - Color: {fileID: 21300000, guid: 1e2c39e76a26b5b4aae8d2dfd0a40c84, type: 3}
    Mask: {fileID: 21300000, guid: 7fb567b8820181840a7886f594ac11f4, type: 3}
  BreakAmount: 50
  ClientVoice: {fileID: 8300000, guid: d3dc7ff92b9630c499ecb6ad3eb532f3, type: 3}
  ClientVoiceAngry: {fileID: 8300000, guid: 1915146c540258b46baaa2db09041cc7, type: 3}
  ClientVoiceHappy: {fileID: 8300000, guid: f40bfce0ed5c7534c820d8ced2b8da60, type: 3}
  Client: {fileID: 21300000, guid: 5c6df28c862a52d4998a183cb28ec6bb, type: 3}
  Request: {fileID: 21300000, guid: b332d5e09cdbc46489479a1bececbf60, type: 3}
  _happyAnim: {fileID: 9100000, guid: c72d7d9da782a014fbc099066ed279da, type: 2}
  _sadAnim: {fileID: 9100000, guid: 8f0ebc58b861212489d8e453b626a020, type: 2}
  _happy: {fileID: 21300000, guid: 96cbe1b30149ba84fb39f511459dbf9e, type: 3}
  _sad: {fileID: 21300000, guid: 10da8679715ea91428f7c1f628ab22c1, type: 3}
  ClientResult: {fileID: 0}
  Reward: 0
